{
    "key": "group_5fb09e9e4fcca",
    "title": "Audio Bin Items",
    "fields": [
        {
            "key": "field_5fb0a08c565a7",
            "label": "Audio",
            "name": "audio",
            "type": "relationship",
            "instructions": "Audio files in this bin.",
            "required": 0,
            "conditional_logic": 0,
            "wrapper": {
                "width": "",
                "class": "",
                "id": ""
            },
            "post_type": [
                "attachment"
            ],
            "taxonomy": "",
            "filters": [
                "search",
                "taxonomy"
            ],
            "elements": "",
            "min": "",
            "max": "",
            "return_format": "object"
        },
        {
            "key": "field_5fcbfc01eb790",
            "label": "Sub-bins",
            "name": "sub_bins",
            "type": "relationship",
            "instructions": "Bins in this bin. Careful to avoid recursion!",
            "required": 0,
            "conditional_logic": 0,
            "wrapper": {
                "width": "",
                "class": "",
                "id": ""
            },
            "post_type": [
                "dried_media_bins"
            ],
            "taxonomy": "",
            "filters": [
                "search",
                "taxonomy"
            ],
            "elements": "",
            "min": "",
            "max": "",
            "return_format": "object"
        }
    ],
    "location": [
        [
            {
                "param": "post_type",
                "operator": "==",
                "value": "dried_audio_bins"
            }
        ]
    ],
    "menu_order": 0,
    "position": "normal",
    "style": "default",
    "label_placement": "top",
    "instruction_placement": "label",
    "hide_on_screen": "",
    "active": true,
    "description": "Which items are in this bin?",
    "modified": 1619644525
}