{
    "key": "group_600cb4319f978",
    "title": "Audio Bin volumes",
    "fields": [
        {
            "key": "field_600cb4aa2d6b2",
            "label": "Volume",
            "name": "volume",
            "type": "number",
            "instructions": "How loud are these sounds? 0 - 1",
            "required": 1,
            "conditional_logic": 0,
            "wrapper": {
                "width": "",
                "class": "",
                "id": ""
            },
            "default_value": 1,
            "placeholder": "",
            "prepend": "",
            "append": "",
            "min": 0,
            "max": 1,
            "step": ""
        },
        {
            "key": "field_600cb4d82d6b3",
            "label": "Fade in time",
            "name": "fade_in_time",
            "type": "number",
            "instructions": "How long should these sounds fade in?",
            "required": 1,
            "conditional_logic": 0,
            "wrapper": {
                "width": "",
                "class": "",
                "id": ""
            },
            "default_value": 0,
            "placeholder": "",
            "prepend": "",
            "append": "Seconds. (Use 0 for no fade in)",
            "min": 0,
            "max": "",
            "step": ""
        },
        {
            "key": "field_600cb5262d6b4",
            "label": "Fade out time",
            "name": "fade_out_time",
            "type": "number",
            "instructions": "How long should these sounds fade out? Note: this fade out is only applied if playback stops before the file's end is reached (eg, if it's stopped by it's parent pool or a random duration). In other words, it will not be applied if the file plays to its end -- if you want that fade out too, it has to be in the audio file itself!",
            "required": 1,
            "conditional_logic": 0,
            "wrapper": {
                "width": "",
                "class": "",
                "id": ""
            },
            "default_value": 0,
            "placeholder": "",
            "prepend": "",
            "append": "Seconds. (Use 0 for no fade out)",
            "min": 0,
            "max": "",
            "step": ""
        }
    ],
    "location": [
        [
            {
                "param": "post_type",
                "operator": "==",
                "value": "dried_audio_bins"
            }
        ]
    ],
    "menu_order": 0,
    "position": "normal",
    "style": "default",
    "label_placement": "top",
    "instruction_placement": "label",
    "hide_on_screen": "",
    "active": true,
    "description": "What volumes do these sounds play at, and do they fade in or out?",
    "modified": 1619644535
}