{
    "key": "group_5fd528ef9cc8c",
    "title": "Pool Items",
    "fields": [
        {
            "key": "field_5fd52908fdd38",
            "label": "Audio Bins",
            "name": "audio_bins",
            "type": "relationship",
            "instructions": "Which bins does this pool play?",
            "required": 0,
            "conditional_logic": 0,
            "wrapper": {
                "width": "",
                "class": "",
                "id": ""
            },
            "post_type": [
                "dried_audio_bins"
            ],
            "taxonomy": "",
            "filters": [
                "search",
                "post_type",
                "taxonomy"
            ],
            "elements": "",
            "min": "",
            "max": "",
            "return_format": "object"
        },
        {
            "key": "field_6089e8ef5bed9",
            "label": "Visual Bins",
            "name": "visual_bins",
            "type": "relationship",
            "instructions": "Which bins does this pool play?",
            "required": 0,
            "conditional_logic": 0,
            "wrapper": {
                "width": "",
                "class": "",
                "id": ""
            },
            "post_type": [
                "dried_visual_bins"
            ],
            "taxonomy": "",
            "filters": [
                "search",
                "post_type",
                "taxonomy"
            ],
            "elements": "",
            "min": "",
            "max": "",
            "return_format": "object"
        },
        {
            "key": "field_5fd5293bfdd39",
            "label": "Pools",
            "name": "pools",
            "type": "relationship",
            "instructions": "Which pools does this pool play?",
            "required": 0,
            "conditional_logic": 0,
            "wrapper": {
                "width": "",
                "class": "",
                "id": ""
            },
            "post_type": [
                "dried_pools"
            ],
            "taxonomy": "",
            "filters": [
                "search",
                "taxonomy"
            ],
            "elements": "",
            "min": "",
            "max": "",
            "return_format": "object"
        }
    ],
    "location": [
        [
            {
                "param": "post_type",
                "operator": "==",
                "value": "dried_pools"
            }
        ]
    ],
    "menu_order": 0,
    "position": "normal",
    "style": "default",
    "label_placement": "top",
    "instruction_placement": "label",
    "hide_on_screen": "",
    "active": true,
    "description": "Which bins does this pool play?",
    "modified": 1619650822
}